{
    "Pb": {
        "type": "twostep",
        "theta0": 0.5,
        "adsorption": {
            "Sigma0": 6e-6,
            "f": 1,
            "theta": 1
        },
        "reactions": {
            "I": {
                "type": "EC",
                "n": 1,
                "alpha": 0.5,
                "k": 5e-6,
                "stoichiometry": {
                    "theta": 1,
                    "ca": -1,
                    "xi": -1
                }
            },
            "II": {
                "type": "EC",
                "n": 1,
                "alpha": 0.5,
                "k": 1e-06,
                "stoichiometry": {
                    "theta": -1,
                    "cpb": 1,
                    "xi": 1
                }
            }
        }
    }
}
