{
    "Pb": {
        "type": "twostep2ads",
        "adsorption": {
            "Sigma0": 6e-6,
            "f": 1,
            "theta1": 1,
            "theta2": 1
        },
        "reactions": {
            "I": {
                "type": "EC",
                "n": 1,
                "alpha": 0.5,
                "k": 4e-5,
                "stoichiometry": {
                    "theta1": 1,
                    "ca": -1,
                    "xi": -1
                }
            },
            "II": {
                "type": "EC",
                "n": 1,
                "alpha": 0.75,
                "k": 2.5e-6,
                "stoichiometry": {
                    "theta1": -1,
                    "theta2": 1
                }
            },
            "III": {
                "type": "CHEM",
                "kf": 0.5e-05,
                "kb": 0.5e-05,
                "stoichiometry": {
                    "theta2": -1,
                    "cpb": 1,
                    "xi": 1
                }
            }
        }
    }
}
