{
    "Pb": {
        "type": "hampson",
        "adsorption": {
            "Sigma0": 6e-6,
            "f": 1.0,
            "theta1": 1,
            "theta2": 2
        },
        "reactions": {
            "I": {
                "type": "EC",
                "n": 1,
                "alpha": 0.75,
                "k": 1e-5,
                "stoichiometry": {
                    "theta1": 1,
                    "xi": -1,
                    "ca": -1
                }
            },
            "II": {
                "type": "CHEM",
                "kf": 0.5e-4,
                "kb": 0.5e-4,
                "stoichiometry": {
                    "theta1": -2,
                    "theta2": 1,
                    "ca": 1
                }
            },
            "III": {
                "type": "EC",
                "n": 2,
                "alpha": 0.5,
                "k": 8e-7,
                "stoichiometry": {
                    "theta2": -1,
                    "xi": 2,
                    "ca": -1,
                    "cpb": 2
                }
            }
        }
    }
}
